1, 1.142801e-04, 1.000000
2, 4.998857e-01, 1.500000
3, 2.498857e-01, 1.250000
4, 1.248857e-01, 1.125000
5, 6.238572e-02, 1.062500
6, 3.113572e-02, 1.031250
7, 1.551072e-02, 1.015625
8, 7.698220e-03, 1.007813
9, 3.791970e-03, 1.003906
10, 1.838845e-03, 1.001953
11, 8.622824e-04, 1.000977
12, 3.740011e-04, 1.000488
13, 1.298605e-04, 1.000244
14, 7.790196e-06, 1.000122
